<?xml version="1.0" encoding="utf-8"?>
<!-- Generator: Adobe Illustrator 15.0.0, SVG Export Plug-In . SVG Version: 6.00 Build 0)  -->
<!DOCTYPE svg PUBLIC "-//W3C//DTD SVG 1.1//EN" "http://www.w3.org/Graphics/SVG/1.1/DTD/svg11.dtd">
<svg version="1.1" id="Layer_1" xmlns="http://www.w3.org/2000/svg" xmlns:xlink="http://www.w3.org/1999/xlink" x="0px" y="0px"
	 width="345.614px" height="257.018px" viewBox="0 0 345.614 257.018" enable-background="new 0 0 345.614 257.018"
	 xml:space="preserve">
<g>
	<g>
		<path fill="#166232" d="M127.813,66.688l-21.023,3.081c-1.157,0.171-2.021,0.423-2.596,0.76c-0.578,0.338-0.91,0.884-1.002,1.641
			c-0.143,1.102,0.845,1.496,2.958,1.187l17.552-2.57c4.747-0.09,7.199,1.663,7.355,5.252l-0.717,5.118
			c-1.11,3.742-4.122,6.328-9.043,7.758l-29.601,4.339l0.967-7.232l25.531-3.742c1.16-0.169,2.025-0.423,2.6-0.761
			c0.578-0.339,0.929-0.885,1.052-1.648c0.133-1.166-0.845-1.598-2.924-1.294l-17.554,2.572c-4.809,0.134-7.255-1.587-7.337-5.151
			l0.668-5.112c1.105-3.743,4.118-6.326,9.042-7.759l30.194-4.427L127.813,66.688z"/>
		<path fill="#166232" d="M138.146,58.082l29.603-4.338c4.728,0.017,7.152,1.805,7.266,5.366l-1.088,8.111
			c-1.166,3.784-4.188,6.317-9.064,7.606l-17.797,2.609l6.019-7.971l8.926-1.306c2.114-0.312,3.294-1.363,3.537-3.155l0.119-0.929
			c0.246-1.995-0.754-2.826-3.003-2.496l-16.655,2.439l-2.898,21.698l-8.873,1.299L138.146,58.082z"/>
		<path fill="#166232" d="M188.816,50.654l21.471-3.148c4.728,0.018,7.153,1.808,7.27,5.372l-2.122,15.908
			c-1.169,3.783-4.207,6.337-9.108,7.665l-21.368,3.131c-4.817,0.1-7.252-1.654-7.308-5.258l2.127-15.911
			C180.883,54.671,183.896,52.085,188.816,50.654z M188.127,60.785l-1.202,8.735c-0.24,1.825,0.699,2.581,2.813,2.271l13.735-2.015
			c2.116-0.308,3.291-1.374,3.531-3.198l1.2-8.736c0.248-1.996-0.749-2.827-2.997-2.497l-13.339,1.954
			C189.622,57.627,188.373,58.79,188.127,60.785z"/>
		<path fill="#166232" d="M252.825,41.272c4.733,0.018,7.157,1.806,7.272,5.367l-1.093,8.114c-0.804,2.581-2.355,4.529-4.661,5.848
			l2.999,8.372l-9.916,1.457l-2.939-7.271l-12.345,1.811l6.023-7.973l8.925-1.308c2.113-0.311,3.294-1.362,3.536-3.152l0.118-0.932
			c0.25-1.991-0.751-2.827-3-2.496l-16.658,2.444l-2.896,21.695l-8.875,1.3l3.912-28.935L252.825,41.272z"/>
		<path fill="#166232" d="M300.67,34.262l-6.071,7.979l-8.924,1.309l-2.899,21.698l-8.826,1.293l2.899-21.698l-13.884,2.037
			l6.071-7.985L300.67,34.262z"/>
		<path fill="#166232" d="M334.661,36.369l-21.023,3.082c-1.156,0.168-2.02,0.424-2.596,0.76c-0.577,0.338-0.908,0.885-0.999,1.641
			c-0.145,1.104,0.844,1.5,2.956,1.188l17.555-2.573c4.744-0.086,7.197,1.665,7.353,5.254l-0.72,5.12
			c-1.106,3.742-4.118,6.327-9.042,7.756l-29.6,4.338l0.967-7.233l25.532-3.741c1.158-0.169,2.025-0.423,2.598-0.759
			c0.577-0.338,0.927-0.887,1.05-1.65c0.134-1.168-0.84-1.6-2.924-1.292l-17.549,2.571c-4.812,0.13-7.257-1.589-7.342-5.151
			l0.669-5.114c1.104-3.742,4.12-6.326,9.044-7.761l30.193-4.424L334.661,36.369z"/>
	</g>
	<g>
		<polygon fill="#166232" points="128.165,95.504 112.551,97.793 98.785,106.867 99.756,99.667 90.879,100.968 86.967,129.905 
			95.84,128.605 97.393,117.233 111.527,126.304 124.205,124.445 104.68,111.253 		"/>
		<path fill="#166232" d="M138.401,107.272l2.163-2.848l24.69-3.618l-5.972,7.965l-21.471,3.146l-0.495,3.515l26.574-3.895
			l-6.025,7.975l-30.343,4.447l3.915-28.935l34.754-5.096l-1.012,7.241l-25.932,3.801L138.401,107.272z"/>
		<path fill="#166232" d="M200.354,84.923c4.729,0.019,7.152,1.805,7.268,5.367l-1.09,8.114c-0.804,2.58-2.354,4.532-4.662,5.847
			l2.999,8.374l-9.914,1.452l-2.939-7.268l-12.346,1.811l6.021-7.973l8.924-1.308c2.116-0.31,3.295-1.361,3.541-3.155l0.116-0.929
			c0.249-1.993-0.752-2.826-3.002-2.496L178.615,95.2l-2.898,21.695l-8.875,1.3l3.912-28.933L200.354,84.923z"/>
		<path fill="#166232" d="M226.36,102.383l9.42-1.38l-4.759-12.775l-12.862,22.448l-10.314,1.513l17.796-30.974l12.989-1.904
			l10.019,26.895l-28.312,4.152L226.36,102.383z"/>
		<path fill="#166232" d="M264.558,75.512l-2.942,21.704l24.096-3.532l-5.875,7.95l-28.014,4.11l3.911-28.938L264.558,75.512z"/>
		<path fill="#166232" d="M304.75,90.893l9.42-1.38l-4.762-12.774l-12.865,22.448l-10.313,1.513l17.796-30.973l12.989-1.903
			l10.021,26.896l-28.313,4.149L304.75,90.893z"/>
	</g>
	<g>
		<path fill="#65AE45" d="M36.948,4.716c0,0-33.343,51.022-29.375,103.971c8.576-6.33,23.308-32.04,23.308-32.04L29.437,71.7
			C29.437,71.7,25.97,31.293,36.948,4.716z"/>
		<path fill="#166232" d="M28.66,72.114c-11.6,10.554-19.901,23.415-21.633,38.979c-0.222,1.987-0.342,4.016-0.342,6.093
			c0,69.33,38.517,130.958,38.517,130.958s-12.542-51.661-10.051-98.544c0.327-6.169,0.915-12.258,1.826-18.134
			c1.75-11.27,4.694-21.755,9.266-30.562c0,0,2.648-4.632,4.362-7.168c30.922-44.67,83.188-65.141,83.188-65.141
			S65.033,39.017,28.66,72.114z"/>
		<path fill="#65AE45" d="M141.295,252.348C60.221,159.063,48.497,97.076,48.497,97.076L7.573,108.687
			C7.573,108.687,40.806,167.195,141.295,252.348z"/>
		<circle fill="#ED1C24" cx="51.536" cy="35.193" r="10.833"/>
	</g>
	<g>
		<path fill="#ED1C24" d="M98.689,143.402l-9.307,1.372c-0.512,0.076-0.895,0.203-1.144,0.381c-0.251,0.175-0.388,0.474-0.418,0.887
			c-0.045,0.604,0.4,0.84,1.337,0.702l7.77-1.146c2.112,0.023,3.232,1.026,3.359,3.007l-0.235,2.811
			c-0.431,2.044-1.73,3.423-3.897,4.135l-13.104,1.931l0.312-3.971l11.302-1.666c0.512-0.075,0.894-0.2,1.144-0.378
			c0.251-0.18,0.397-0.475,0.443-0.893c0.038-0.641-0.402-0.894-1.325-0.757l-7.768,1.145c-2.14-0.002-3.256-0.986-3.352-2.952
			l0.214-2.808c0.429-2.044,1.729-3.421,3.896-4.135l13.368-1.973L98.689,143.402z"/>
		<path fill="#ED1C24" d="M103.149,138.819l13.104-1.934c2.105,0.086,3.211,1.108,3.322,3.074l-0.352,4.453
			c-0.455,2.065-1.76,3.415-3.909,4.051l-7.88,1.162l2.55-4.301l3.952-0.583c0.937-0.138,1.445-0.699,1.523-1.68l0.036-0.513
			c0.079-1.095-0.379-1.569-1.376-1.421l-7.374,1.086l-0.934,11.911l-3.93,0.579L103.149,138.819z"/>
		<path fill="#ED1C24" d="M125.578,135.514l9.506-1.402c2.106,0.081,3.212,1.105,3.322,3.07l-0.686,8.733
			c-0.456,2.067-1.765,3.429-3.927,4.084l-9.459,1.396c-2.142-0.02-3.254-1.024-3.338-3.011l0.686-8.735
			C122.112,137.604,123.411,136.228,125.578,135.514z M125.436,141.084l-0.39,4.795c-0.077,1.003,0.352,1.434,1.289,1.296
			l6.08-0.897c0.937-0.138,1.444-0.708,1.52-1.709l0.393-4.795c0.076-1.096-0.382-1.569-1.377-1.425l-5.904,0.873
			C126.05,139.368,125.516,139.988,125.436,141.084z"/>
		<path fill="#ED1C24" d="M153.916,131.333c2.106,0.083,3.211,1.107,3.323,3.071l-0.352,4.453c-0.316,1.41-0.976,2.462-1.979,3.151
			l1.472,4.659l-4.391,0.648l-1.425-4.052l-5.467,0.808l2.551-4.301l3.951-0.583c0.937-0.138,1.445-0.698,1.523-1.684l0.036-0.51
			c0.079-1.094-0.379-1.567-1.376-1.421l-7.374,1.088l-0.934,11.91l-3.929,0.579l1.268-15.886L153.916,131.333z"/>
		<path fill="#ED1C24" d="M175.094,128.21l-2.57,4.304l-3.953,0.581l-0.934,11.911l-3.906,0.579l0.934-11.911l-6.146,0.905
			l2.573-4.306L175.094,128.21z"/>
		<path fill="#ED1C24" d="M190.26,129.899l-9.308,1.373c-0.515,0.076-0.893,0.202-1.145,0.38c-0.252,0.176-0.389,0.471-0.42,0.887
			c-0.043,0.604,0.402,0.84,1.338,0.702l7.771-1.147c2.111,0.025,3.231,1.028,3.36,3.009l-0.237,2.811
			c-0.431,2.044-1.73,3.424-3.897,4.135l-13.104,1.932l0.312-3.972l11.302-1.665c0.513-0.076,0.893-0.203,1.145-0.379
			c0.252-0.179,0.396-0.474,0.443-0.892c0.036-0.642-0.401-0.895-1.323-0.759l-7.771,1.146c-2.14-0.002-3.257-0.984-3.353-2.954
			l0.215-2.806c0.432-2.044,1.732-3.423,3.896-4.135l13.368-1.971L190.26,129.899z"/>
		<path fill="#ED1C24" d="M206.927,130.86l0.92-1.536l10.883-1.605l-2.551,4.302l-9.437,1.391l-0.476,5.9l-3.908,0.576l1.271-15.885
			l15.341-2.262l-0.335,3.973l-11.435,1.688L206.927,130.86z"/>
		<path fill="#ED1C24" d="M224.699,120.896l9.505-1.402c2.105,0.083,3.211,1.106,3.321,3.071l-0.684,8.734
			c-0.457,2.064-1.767,3.428-3.929,4.083l-9.461,1.396c-2.138-0.021-3.253-1.024-3.336-3.012l0.688-8.736
			C221.23,122.986,222.53,121.609,224.699,120.896z M224.556,126.466l-0.391,4.795c-0.076,1.001,0.353,1.434,1.289,1.295l6.08-0.896
			c0.938-0.14,1.444-0.707,1.519-1.709l0.393-4.794c0.076-1.096-0.38-1.571-1.375-1.424l-5.905,0.871
			C225.17,124.75,224.634,125.371,224.556,126.466z"/>
		<path fill="#ED1C24" d="M253.033,116.717c2.108,0.083,3.213,1.106,3.325,3.07l-0.354,4.453c-0.316,1.411-0.978,2.462-1.979,3.15
			l1.471,4.662l-4.392,0.646l-1.427-4.05l-5.463,0.806l2.549-4.3l3.949-0.582c0.938-0.139,1.445-0.7,1.524-1.683l0.04-0.511
			c0.076-1.094-0.384-1.568-1.378-1.422l-7.376,1.088l-0.934,11.91l-3.929,0.579l1.268-15.885L253.033,116.717z"/>
		<path fill="#ED1C24" d="M271.581,113.982l-0.959,11.913l10.669-1.573l-2.483,4.292l-12.403,1.829l1.269-15.884L271.581,113.982z"
			/>
		<path fill="#ED1C24" d="M287.941,123.342l0.623-7.94l-6.082,0.896l2.509-4.294l13.959-2.058l-2.573,4.303l-3.905,0.577
			l-0.622,7.94l6.146-0.906l-2.553,4.301l-13.891,2.048l2.481-4.291L287.941,123.342z"/>
		<path fill="#ED1C24" d="M303.545,116.612l0.918-1.536l10.884-1.606l-2.552,4.3l-9.435,1.392l-0.479,5.9l-3.906,0.577l1.27-15.885
			l15.341-2.262l-0.333,3.974l-11.437,1.686L303.545,116.612z"/>
		<path fill="#ED1C24" d="M320.994,114.039l0.916-1.537l10.93-1.611l-2.527,4.296l-9.507,1.402l-0.16,1.929l11.764-1.736
			l-2.549,4.302l-13.435,1.98l1.267-15.885l15.387-2.268l-0.33,3.973l-11.481,1.693L320.994,114.039z"/>
	</g>
</g>
</svg>
